{
  "version": 0.6,
  "generator": "Overpass API",
  "osm3s": {
    "timestamp_osm_base": "2014-11-28T12:04:02Z",
    "copyright": "The data included in this document is from www.openstreetmap.org. The data is made available under ODbL."
  },
  "elements": [
    {
      "type": "node",
      "id": 30883051,
      "lat": 47.3756651,
      "lon": 8.5352044,
      "tags": {
        "amenity": "parking",
        "fee": "yes",
        "name": "Parkhaus Gessnerallee",
        "parking": "underground",
        "wheelchair": "yes"
      }
    },
    {
      "type": "node",
      "id": 283458333,
      "lat": 47.3759778,
      "lon": 8.538053,
      "tags": {
        "amenity": "parking",
        "fee": "yes",
        "name": "Globus",
        "parking": "multi-storey",
        "wheelchair": "yes"
      }
    },
    {
      "type": "node",
      "id": 460419758,
      "lat": 47.3766113,
      "lon": 8.5447233,
      "tags": {
        "amenity": "parking",
        "fee": "yes",
        "name": "Parkgarage am Central",
        "parking": "underground"
      }
    },
    {
      "type": "node",
      "id": 472292787,
      "lat": 47.374536,
      "lon": 8.5409973,
      "tags": {
        "amenity": "parking",
        "capacity": "21",
        "fee": "yes",
        "parking": "surface"
      }
    },
    {
      "type": "node",
      "id": 1601704039,
      "lat": 47.3749988,
      "lon": 8.5370247,
      "tags": {
        "amenity": "parking_space",
        "capacity:disabled": "1",
        "parking_space": "disabled"
      }
    },
    {
      "type": "node",
      "id": 1601704040,
      "lat": 47.3771949,
      "lon": 8.5354532,
      "tags": {
        "amenity": "parking_space",
        "capacity:disabled": "2",
        "name": "Sihlpost",
        "parking_space": "disabled"
      }
    },
    {
      "type": "way",
      "id": 14389703,
      "nodes": [
        140415654,
        140415656,
        140415657,
        140415658,
        140415654
      ],
      "tags": {
        "amenity": "parking",
        "fee": "yes"
      }
    },
    {
      "type": "way",
      "id": 136617348,
      "nodes": [
        1498834451,
        1498834450,
        26853073,
        2901603753,
        1498834444,
        1498834446,
        1964156582,
        1080498159,
        1080498181,
        1517807736,
        1498834451
      ],
      "tags": {
        "amenity": "parking",
        "name": "Zähringerplatz"
      }
    },
    {
      "type": "node",
      "id": 140415654,
      "lat": 47.3773064,
      "lon": 8.5357263
    },
    {
      "type": "node",
      "id": 140415656,
      "lat": 47.3772256,
      "lon": 8.5358795
    },
    {
      "type": "node",
      "id": 140415657,
      "lat": 47.3766375,
      "lon": 8.5352076
    },
    {
      "type": "node",
      "id": 140415658,
      "lat": 47.3767183,
      "lon": 8.5350544
    },
    {
      "type": "node",
      "id": 1517807736,
      "lat": 47.3742502,
      "lon": 8.5446949
    },
    {
      "type": "node",
      "id": 1498834446,
      "lat": 47.3735334,
      "lon": 8.5452293
    },
    {
      "type": "node",
      "id": 26853073,
      "lat": 47.3737113,
      "lon": 8.5448538
    },
    {
      "type": "node",
      "id": 1498834444,
      "lat": 47.3734597,
      "lon": 8.5450443
    },
    {
      "type": "node",
      "id": 1080498159,
      "lat": 47.3740461,
      "lon": 8.5448515
    },
    {
      "type": "node",
      "id": 1080498181,
      "lat": 47.374103,
      "lon": 8.5448079
    },
    {
      "type": "node",
      "id": 1498834450,
      "lat": 47.3740018,
      "lon": 8.5446388
    },
    {
      "type": "node",
      "id": 1964156582,
      "lat": 47.3739318,
      "lon": 8.5449309
    },
    {
      "type": "node",
      "id": 2901603753,
      "lat": 47.3735853,
      "lon": 8.544942
    },
    {
      "type": "node",
      "id": 1498834451,
      "lat": 47.3741788,
      "lon": 8.5445036
    }
  ]
}